[gd_scene load_steps=8 format=2]

[ext_resource path="res://Assets/Images/tileset.tres" type="TileSet" id=1]
[ext_resource path="res://gridx.tres" type="TileSet" id=2]
[ext_resource path="res://Assets/Scripts/Grid.gd" type="Script" id=3]
[ext_resource path="res://Scenes/Player.tscn" type="PackedScene" id=4]
[ext_resource path="res://Scenes/Item.tscn" type="PackedScene" id=5]
[ext_resource path="res://Scenes/Monster01.tscn" type="PackedScene" id=6]
[ext_resource path="res://Assets/sounds/nivel2.wav" type="AudioStream" id=7]

[node name="Nuevo nivel" type="Node"]

[node name="World" type="TileMap" parent="."]
tile_set = ExtResource( 1 )
cell_size = Vector2( 16, 16 )
format = 1
tile_data = PoolIntArray( -196607, 536870940, 0, -196606, 536870940, 0, -196605, 536870940, 0, -196604, 536870940, 0, -196603, 536870940, 0, -196602, 536870940, 0, -196601, 536870940, 0, -131072, 536870940, 0, -131071, 536870940, 0, -131070, 536870940, 0, -131069, 536870940, 0, -131068, 536870940, 0, -131067, 536870940, 0, -131066, 536870940, 0, -131065, 536870940, 0, -131064, 536870940, 0, -131063, 536870940, 0, -131062, 536870940, 0, -131061, 536870940, 0, -131060, 536870940, 0, -131059, 536870940, 0, -1, 28, 0, -65536, -1610612733, 0, -65535, -1610612733, 0, -65534, -1610612733, 0, -65533, -1610612733, 0, -65532, -1610612733, 0, -65531, -1610612733, 0, -65530, -1610612733, 0, -65529, -1610612733, 0, -65528, -1610612733, 0, -65527, -1610612733, 0, -65526, -1610612733, 0, -65525, 536870940, 0, -65524, 536870940, 0, -65523, 536870940, 0, 65535, 3, 0, 0, 6, 0, 1, 26, 0, 2, 26, 0, 3, 26, 0, 4, 26, 0, 5, 26, 0, 6, 26, 0, 7, 26, 0, 8, 26, 0, 9, 26, 0, 10, 26, 0, 11, 536870915, 0, 12, 28, 0, 13, 536870940, 0, 131071, 3, 0, 65536, 0, 0, 65537, 31, 0, 65538, 2, 0, 65539, 30, 0, 65540, 2, 0, 65541, 32, 0, 65542, 2, 0, 65543, 2, 0, 65544, 29, 0, 65545, 31, 0, 65546, 32, 0, 65547, 536870915, 0, 65548, 28, 0, 65549, 536870940, 0, 196607, 3, 0, 131072, 0, 0, 131073, 15, 0, 131074, 18, 0, 131075, 18, 0, 131076, 18, 0, 131077, 18, 0, 131078, 18, 0, 131079, 18, 0, 131080, 18, 0, 131081, 18, 0, 131082, 22, 0, 131083, 536870915, 0, 131084, 28, 0, 131085, 536870940, 0, 262143, 3, 0, 196608, 0, 0, 196609, -1073741806, 0, 196610, -1073741811, 0, 196611, 21, 0, 196612, 21, 0, 196613, 4, 0, 196614, 1610612757, 0, 196615, 21, 0, 196616, 21, 0, 196617, -1073741808, 0, 196618, 22, 0, 196619, 536870915, 0, 196620, 28, 0, 196621, 536870940, 0, 327679, 3, 0, 262144, 0, 0, 262145, 12, 0, 262146, 1610612761, 0, 262147, -1073741811, 0, 262148, 23, 0, 262149, 23, 0, 262150, 23, 0, 262151, 23, 0, 262152, 21, 0, 262153, -1073741808, 0, 262154, 22, 0, 262155, 536870915, 0, 262156, 28, 0, 262157, 536870940, 0, 393215, 3, 0, 327680, 0, 0, 327681, 12, 0, 327682, -1073741811, 0, 327683, -1073741811, 0, 327684, 23, 0, 327685, -1073741807, 0, 327686, 17, 0, 327687, 23, 0, 327688, 21, 0, 327689, -1073741808, 0, 327690, 22, 0, 327691, 536870915, 0, 327692, 536870940, 0, 327693, 536870940, 0, 458751, 3, 0, 393216, 1073741824, 0, 393217, 12, 0, 393218, -1073741811, 0, 393219, 1610612757, 0, 393220, 23, 0, 393221, 1610612753, 0, 393222, -1610612719, 0, 393223, 23, 0, 393224, 1610612753, 0, 393225, 21, 0, 393226, 22, 0, 393227, 536870915, 0, 393228, 536870940, 0, 393229, 536870940, 0, 524287, 3, 0, 458752, 1073741824, 0, 458753, 12, 0, 458754, 536870937, 0, 458755, 1610612757, 0, 458756, -1073741811, 0, 458757, 23, 0, 458758, 23, 0, 458759, 23, 0, 458760, 21, 0, 458761, 21, 0, 458762, 22, 0, 458763, 536870940, 0, 458764, 536870940, 0, 458765, 536870940, 0, 589823, 3, 0, 524288, 26, 0, 524289, -1073741806, 0, 524290, -1073741811, 0, 524291, -1073741811, 0, 524292, -1073741811, 0, 524293, 25, 0, 524294, 25, 0, 524295, 25, 0, 524296, 1610612757, 0, 524297, 1610612753, 0, 524298, 22, 0, 524299, 536870915, 0, 524300, 536870940, 0, 524301, 536870940, 0, 655359, 3, 0, 589824, 34, 0, 589825, 1610612758, 0, 589826, 1610612758, 0, 589827, 1610612758, 0, 589828, 1610612758, 0, 589829, 1610612758, 0, 589830, 1610612758, 0, 589831, 1610612758, 0, 589832, 1610612758, 0, 589833, 1610612758, 0, 589834, -1610612714, 0, 589835, 536870915, 0, 589836, 536870940, 0, 589837, 536870940, 0, 720895, 3, 0, 655360, 1073741825, 0, 655361, 1073741825, 0, 655362, 1073741825, 0, 655363, 1073741825, 0, 655364, 1073741825, 0, 655365, 1073741825, 0, 655366, 1073741825, 0, 655367, 1073741825, 0, 655368, 1073741825, 0, 655369, 1073741825, 0, 655370, 1073741825, 0, 655371, 536870915, 0, 655372, 536870940, 0, 655373, 536870940, 0, 786431, 28, 0, 720896, -536870909, 0, 720897, -536870909, 0, 720898, -536870909, 0, 720899, -536870909, 0, 720900, -536870909, 0, 720901, -536870909, 0, 720902, -536870909, 0, 720903, -536870909, 0, 720904, -536870909, 0, 720905, -536870909, 0, 720906, -536870909, 0, 720907, 536870940, 0, 720908, 536870940, 0, 720909, 536870940, 0, 851967, -1610612708, 0, 786432, 536870940, 0, 786433, 536870940, 0, 786434, 536870940, 0, 786435, 536870940, 0, 786436, 536870940, 0, 786437, 536870940, 0, 786438, 536870940, 0, 786439, 536870940, 0, 786440, 536870940, 0, 786441, 536870940, 0, 786442, 536870940, 0, 786443, 536870940, 0, 786444, 536870940, 0, 786445, 536870940, 0, 851968, 536870940, 0, 851969, 536870940, 0, 851970, 536870940, 0, 851971, 536870940, 0, 851972, 536870940, 0, 851973, 536870940, 0, 851974, 536870940, 0, 851975, 536870940, 0, 851976, 536870940, 0, 851977, 536870940, 0, 851978, 536870940, 0, 851979, 536870940, 0, 851980, 536870940, 0, 851981, 536870940, 0 )

[node name="Grid" type="TileMap" parent="."]
tile_set = ExtResource( 2 )
cell_size = Vector2( 16, 16 )
cell_tile_origin = 1
format = 1
tile_data = PoolIntArray( 0, 1, 0, 1, 1, 0, 2, 1, 0, 3, 1, 0, 4, 1, 0, 5, 1, 0, 6, 1, 0, 7, 1, 0, 8, 1, 0, 9, 1, 0, 10, 1, 0, 11, 1, 0, 65536, 1, 0, 65537, 1, 0, 65538, 1, 0, 65539, 1, 0, 65540, 1, 0, 65541, 1, 0, 65542, 1, 0, 65543, 1, 0, 65544, 1, 0, 65545, 1, 0, 65546, 1, 0, 65547, 1, 0, 131072, 1, 0, 131083, 1, 0, 196608, 1, 0, 196613, 3, 0, 196619, 1, 0, 262144, 1, 0, 262155, 1, 0, 327680, 1, 0, 327691, 1, 0, 393216, 1, 0, 393227, 1, 0, 458752, 1, 0, 458758, 0, 0, 458763, 1, 0, 524288, 1, 0, 524293, 1, 0, 524299, 1, 0, 589824, 1, 0, 589835, 1, 0, 655360, 1, 0, 655361, 1, 0, 655362, 1, 0, 655363, 1, 0, 655364, 1, 0, 655365, 1, 0, 655366, 1, 0, 655367, 1, 0, 655368, 1, 0, 655369, 1, 0, 655370, 1, 0, 655371, 1, 0 )
script = ExtResource( 3 )

[node name="Player" parent="Grid" instance=ExtResource( 4 )]
position = Vector2( 24, 40 )

[node name="Item" parent="Grid" instance=ExtResource( 5 )]
position = Vector2( 72, 40 )
type = 2

[node name="Item2" parent="Grid" instance=ExtResource( 5 )]
position = Vector2( 120, 56 )
type = 2

[node name="Item3" parent="Grid" instance=ExtResource( 5 )]
position = Vector2( 103.5, 103.883 )
type = 2

[node name="Monster01" parent="Grid" instance=ExtResource( 6 )]
position = Vector2( 103.5, 72.6471 )

[node name="Monster02" parent="Grid" instance=ExtResource( 6 )]
position = Vector2( 56, 103.883 )

[node name="Camera" type="Camera2D" parent="."]
position = Vector2( 0.617996, 0.360229 )
scale = Vector2( 0.638604, 0.435481 )
offset = Vector2( -16, -16 )
anchor_mode = 0
current = true
zoom = Vector2( 0.65, 0.65 )
__meta__ = {
"_edit_lock_": true
}

[node name="song" type="AudioStreamPlayer" parent="."]
stream = ExtResource( 7 )
volume_db = -14.0
autoplay = true

