[gd_scene load_steps=3 format=2]

[ext_resource path="res://models/Props/Hongo/Mushroom_model.obj" type="ArrayMesh" id=1]
[ext_resource path="res://hongoshader.tres" type="Material" id=2]

[node name="Mushroom" type="MeshInstance"]
mesh = ExtResource( 1 )
material/0 = ExtResource( 2 )
material/1 = ExtResource( 2 )
material/2 = ExtResource( 2 )
