[gd_scene load_steps=5 format=2]

[ext_resource path="res://models/Props/Tronco/L3.obj" type="ArrayMesh" id=1]
[ext_resource path="res://models/Props/Tronco/L3_diff.jpg" type="Texture" id=2]

[sub_resource type="CapsuleShape" id=2]
radius = 1.38751
height = 14.6965

[sub_resource type="SpatialMaterial" id=1]
albedo_texture = ExtResource( 2 )

[node name="Tronco" type="StaticBody"]

[node name="CollisionShape" type="CollisionShape" parent="."]
transform = Transform( -0.171421, -0.084468, -0.98157, -0.0145316, 0.996426, -0.0832087, 0.985091, 0, -0.172036, 5.68299, 0.726024, 9.98853 )
shape = SubResource( 2 )

[node name="MeshInstance" type="MeshInstance" parent="CollisionShape"]
transform = Transform( -0.171421, -0.0145316, 0.985091, -0.084468, 0.996426, -9.31323e-10, -0.98157, -0.0832087, -0.172036, -8.85487, -0.243398, 7.35705 )
mesh = ExtResource( 1 )
material/0 = SubResource( 1 )
