[gd_resource type="TileSet" load_steps=3 format=2]

[ext_resource path="res://Assets/Images/tile.png" type="Texture" id=1]

[sub_resource type="StreamTexture" id=1]
flags = 4
load_path = "res://.import/tile.png-8936b0c312452bf11f2aa683c53d5615.stex"

[resource]
0/name = "Actor"
0/texture = ExtResource( 1 )
0/tex_offset = Vector2( 0, 0 )
0/modulate = Color( 1, 1, 1, 1 )
0/region = Rect2( 0, 0, 16, 16 )
0/tile_mode = 0
0/occluder_offset = Vector2( 8, 8 )
0/navigation_offset = Vector2( 8, 8 )
0/shapes = [  ]
0/z_index = 0
1/name = "Obstacle"
1/texture = ExtResource( 1 )
1/tex_offset = Vector2( 0, 0 )
1/modulate = Color( 1, 1, 1, 1 )
1/region = Rect2( 0, 0, 16, 16 )
1/tile_mode = 0
1/occluder_offset = Vector2( 8, 8 )
1/navigation_offset = Vector2( 8, 8 )
1/shapes = [  ]
1/z_index = 0
2/name = "Object"
2/texture = ExtResource( 1 )
2/tex_offset = Vector2( 0, 0 )
2/modulate = Color( 1, 1, 1, 1 )
2/region = Rect2( 0, 0, 16, 16 )
2/tile_mode = 0
2/occluder_offset = Vector2( 8, 8 )
2/navigation_offset = Vector2( 8, 8 )
2/shapes = [  ]
2/z_index = 0
3/name = "Switch"
3/texture = ExtResource( 1 )
3/tex_offset = Vector2( 0, 0 )
3/modulate = Color( 1, 1, 1, 1 )
3/region = Rect2( 0, 0, 16, 16 )
3/tile_mode = 0
3/occluder_offset = Vector2( 8, 8 )
3/navigation_offset = Vector2( 8, 8 )
3/shapes = [  ]
3/z_index = 0
4/name = "Bullet"
4/texture = SubResource( 1 )
4/tex_offset = Vector2( 0, 0 )
4/modulate = Color( 1, 1, 1, 1 )
4/region = Rect2( 0, 0, 16, 16 )
4/tile_mode = 0
4/occluder_offset = Vector2( 8, 8 )
4/navigation_offset = Vector2( 8, 8 )
4/shapes = [  ]
4/z_index = 0
5/name = "Sprite"
5/texture = ExtResource( 1 )
5/tex_offset = Vector2( 0, 0 )
5/modulate = Color( 1, 1, 1, 1 )
5/region = Rect2( 0, 0, 16, 16 )
5/tile_mode = 0
5/occluder_offset = Vector2( 8, 8 )
5/navigation_offset = Vector2( 8, 8 )
5/shapes = [  ]
5/z_index = 0

